EESchema Schematic File Version 2
LIBS:power
LIBS:device
LIBS:transistors
LIBS:conn
LIBS:linear
LIBS:regul
LIBS:74xx
LIBS:cmos4000
LIBS:adc-dac
LIBS:memory
LIBS:xilinx
LIBS:special
LIBS:microcontrollers
LIBS:dsp
LIBS:microchip
LIBS:analog_switches
LIBS:motorola
LIBS:texas
LIBS:intel
LIBS:audio
LIBS:interface
LIBS:digital-audio
LIBS:philips
LIBS:display
LIBS:cypress
LIBS:siliconi
LIBS:opto
LIBS:atmel
LIBS:contrib
LIBS:valves
LIBS:LM
LIBS:switches
LIBS:Breadboard_Power_Supply-cache
EELAYER 27 0
EELAYER END
$Descr A 11000 8500
encoding utf-8
Sheet 1 1
Title "Breadboard Power Supply"
Date "14 apr 2015"
Rev "A"
Comp "Paul Mullen <http://www.nellump.net/bbpsu>"
Comment1 ""
Comment2 ""
Comment3 ""
Comment4 ""
$EndDescr
$Comp
L LM317T U1
U 1 1 54E8FFCF
P 5400 3050
F 0 "U1" H 5200 3250 40  0000 C CNN
F 1 "LM317T" H 5400 3250 40  0000 L CNN
F 2 "TO-220" H 5400 3150 30  0000 C CIN
F 3 "TI-LM317_Three_Terminal_Adjustable_Regulator.pdf" H 5400 3050 60  0001 C CNN
	1    5400 3050
	1    0    0    -1  
$EndComp
$Comp
L R R1
U 1 1 54E90037
P 5400 4150
F 0 "R1" V 5480 4150 40  0000 C CNN
F 1 "390 1%" V 5407 4151 40  0000 C CNN
F 2 "~" V 5330 4150 30  0000 C CNN
F 3 "~" H 5400 4150 30  0000 C CNN
	1    5400 4150
	1    0    0    -1  
$EndComp
$Comp
L R R3
U 1 1 54E90046
P 6000 3400
F 0 "R3" V 6080 3400 40  0000 C CNN
F 1 "240 1%" V 6007 3401 40  0000 C CNN
F 2 "~" V 5930 3400 30  0000 C CNN
F 3 "~" H 6000 3400 30  0000 C CNN
	1    6000 3400
	1    0    0    -1  
$EndComp
$Comp
L R R2
U 1 1 54E900A5
P 5400 4900
F 0 "R2" V 5480 4900 40  0000 C CNN
F 1 "330 1%" V 5407 4901 40  0000 C CNN
F 2 "~" V 5330 4900 30  0000 C CNN
F 3 "~" H 5400 4900 30  0000 C CNN
	1    5400 4900
	1    0    0    -1  
$EndComp
$Comp
L DIODE D2
U 1 1 54E900E2
P 5400 2550
F 0 "D2" H 5400 2650 40  0000 C CNN
F 1 "1N4002" H 5400 2450 40  0000 C CNN
F 2 "D3" H 5400 2550 60  0001 C CNN
F 3 "Fairchild-1N400x_datasheet.pdf" H 5400 2550 60  0001 C CNN
	1    5400 2550
	-1   0    0    1   
$EndComp
$Comp
L DIODE D3
U 1 1 54E900F1
P 6550 3350
F 0 "D3" H 6550 3450 40  0000 C CNN
F 1 "1N4002" H 6550 3250 40  0000 C CNN
F 2 "D3" H 6550 3350 60  0001 C CNN
F 3 "Fairchild-1N400x_datasheet.pdf" H 6550 3350 60  0001 C CNN
	1    6550 3350
	0    -1   -1   0   
$EndComp
$Comp
L THERMISTOR PPTC1
U 1 1 54E9024F
P 3750 3000
F 0 "PPTC1" V 3850 3050 40  0000 C CNN
F 1 "16R090BPR" V 3600 3000 40  0000 C CNN
F 2 "PPTC2" H 3750 3000 60  0001 C CNN
F 3 "" H 3750 3000 60  0001 C CNN
	1    3750 3000
	0    -1   -1   0   
$EndComp
$Comp
L DIODESCH D1
U 1 1 54E90630
P 4350 3000
F 0 "D1" H 4350 3100 40  0000 C CNN
F 1 "SB240" H 4350 2900 40  0000 C CNN
F 2 "D5" H 4350 3000 60  0001 C CNN
F 3 "Vishay-SB2x0-Schottky_Barrier_Plastic_Rectifier.pdf" H 4350 3000 60  0001 C CNN
	1    4350 3000
	1    0    0    -1  
$EndComp
$Comp
L CONN_2 P3
U 1 1 54E90B35
P 8450 3100
F 0 "P3" V 8450 3100 40  0000 C CNN
F 1 "PIN HDR, 1x2" V 8500 3100 40  0001 C CNN
F 2 "" H 8450 3100 60  0000 C CNN
F 3 "" H 8450 3100 60  0000 C CNN
	1    8450 3100
	1    0    0    -1  
$EndComp
$Comp
L CONN_2 P4
U 1 1 54F635E3
P 8450 3450
F 0 "P4" V 8450 3450 40  0000 C CNN
F 1 "PIN HDR, 1x2" V 8500 3450 40  0001 C CNN
F 2 "" H 8450 3450 60  0000 C CNN
F 3 "" H 8450 3450 60  0000 C CNN
	1    8450 3450
	1    0    0    -1  
$EndComp
$Comp
L GND #PWR01
U 1 1 54F63713
P 8000 4500
F 0 "#PWR01" H 8000 4500 30  0001 C CNN
F 1 "GND" H 8000 4430 30  0001 C CNN
F 2 "" H 8000 4500 60  0000 C CNN
F 3 "" H 8000 4500 60  0000 C CNN
	1    8000 4500
	1    0    0    -1  
$EndComp
$Comp
L CP1 C1
U 1 1 54F79CE4
P 4750 3350
F 0 "C1" H 4800 3450 40  0000 L CNN
F 1 "0.1μ 50V" H 4800 3250 40  0000 L CNN
F 2 "~" H 4750 3350 60  0000 C CNN
F 3 "~" H 4750 3350 60  0000 C CNN
	1    4750 3350
	1    0    0    -1  
$EndComp
$Comp
L CP1 C3
U 1 1 54F79E13
P 7100 3350
F 0 "C3" H 7150 3450 40  0000 L CNN
F 1 "1μ 50V" H 7150 3250 40  0000 L CNN
F 2 "~" H 7100 3350 60  0000 C CNN
F 3 "~" H 7100 3350 60  0000 C CNN
	1    7100 3350
	1    0    0    -1  
$EndComp
$Comp
L LED D4
U 1 1 54F79E7E
P 7500 4550
F 0 "D4" H 7500 4650 40  0000 C CNN
F 1 "RED LED" H 7500 4400 40  0000 C CNN
F 2 "~" H 7500 4550 60  0000 C CNN
F 3 "~" H 7500 4550 60  0000 C CNN
	1    7500 4550
	0    1    1    0   
$EndComp
$Comp
L R R4
U 1 1 54F79ED5
P 7500 3950
F 0 "R4" V 7580 3950 40  0000 C CNN
F 1 "330" V 7507 3951 40  0000 C CNN
F 2 "~" V 7430 3950 30  0000 C CNN
F 3 "~" H 7500 3950 30  0000 C CNN
	1    7500 3950
	1    0    0    -1  
$EndComp
$Comp
L GND #PWR02
U 1 1 54F7A002
P 4750 3700
F 0 "#PWR02" H 4750 3700 30  0001 C CNN
F 1 "GND" H 4750 3630 30  0001 C CNN
F 2 "" H 4750 3700 60  0000 C CNN
F 3 "" H 4750 3700 60  0000 C CNN
	1    4750 3700
	1    0    0    -1  
$EndComp
$Comp
L GND #PWR03
U 1 1 54F7A07F
P 6550 4500
F 0 "#PWR03" H 6550 4500 30  0001 C CNN
F 1 "GND" H 6550 4430 30  0001 C CNN
F 2 "" H 6550 4500 60  0000 C CNN
F 3 "" H 6550 4500 60  0000 C CNN
	1    6550 4500
	1    0    0    -1  
$EndComp
$Comp
L GND #PWR04
U 1 1 54F7A0C0
P 7500 4900
F 0 "#PWR04" H 7500 4900 30  0001 C CNN
F 1 "GND" H 7500 4830 30  0001 C CNN
F 2 "" H 7500 4900 60  0000 C CNN
F 3 "" H 7500 4900 60  0000 C CNN
	1    7500 4900
	1    0    0    -1  
$EndComp
$Comp
L GND #PWR05
U 1 1 54F7A111
P 7100 3700
F 0 "#PWR05" H 7100 3700 30  0001 C CNN
F 1 "GND" H 7100 3630 30  0001 C CNN
F 2 "" H 7100 3700 60  0000 C CNN
F 3 "" H 7100 3700 60  0000 C CNN
	1    7100 3700
	1    0    0    -1  
$EndComp
$Comp
L GND #PWR06
U 1 1 54F7A1CA
P 5400 5400
F 0 "#PWR06" H 5400 5400 30  0001 C CNN
F 1 "GND" H 5400 5330 30  0001 C CNN
F 2 "" H 5400 5400 60  0000 C CNN
F 3 "" H 5400 5400 60  0000 C CNN
	1    5400 5400
	1    0    0    -1  
$EndComp
$Comp
L CONN_2 P1
U 1 1 54F7A2CE
P 2900 3100
F 0 "P1" V 2900 3100 40  0000 C CNN
F 1 "PIN HDR, 1x2" V 2950 3100 40  0001 C CNN
F 2 "" H 2900 3100 60  0000 C CNN
F 3 "" H 2900 3100 60  0000 C CNN
	1    2900 3100
	-1   0    0    -1  
$EndComp
$Comp
L GND #PWR07
U 1 1 54F7A2DD
P 3400 3350
F 0 "#PWR07" H 3400 3350 30  0001 C CNN
F 1 "GND" H 3400 3280 30  0001 C CNN
F 2 "" H 3400 3350 60  0000 C CNN
F 3 "" H 3400 3350 60  0000 C CNN
	1    3400 3350
	1    0    0    -1  
$EndComp
$Comp
L CP1 C2
U 1 1 550FA4A1
P 6550 4150
F 0 "C2" H 6600 4250 40  0000 L CNN
F 1 "10μ 50V" H 6600 4050 40  0000 L CNN
F 2 "~" H 6550 4150 60  0000 C CNN
F 3 "~" H 6550 4150 60  0000 C CNN
	1    6550 4150
	1    0    0    -1  
$EndComp
$Comp
L CONN_2 P2
U 1 1 550FC8FA
P 6000 4900
F 0 "P2" V 6000 4900 40  0000 C CNN
F 1 "PIN HDR, 1x2" V 6050 4900 40  0001 C CNN
F 2 "" H 6000 4900 60  0000 C CNN
F 3 "" H 6000 4900 60  0000 C CNN
	1    6000 4900
	1    0    0    -1  
$EndComp
Text Label 7750 3000 0    60   ~ 0
VOUT
Text Label 3350 3000 0    60   ~ 0
VIN
$Comp
L CONN_2 P5
U 1 1 55105A53
P 8450 3850
F 0 "P5" V 8450 3850 40  0000 C CNN
F 1 "PIN HDR, 1x2" V 8500 3850 40  0001 C CNN
F 2 "" H 8450 3850 60  0000 C CNN
F 3 "" H 8450 3850 60  0000 C CNN
	1    8450 3850
	1    0    0    -1  
$EndComp
$Comp
L CONN_2 P6
U 1 1 55105A62
P 8450 4200
F 0 "P6" V 8450 4200 40  0000 C CNN
F 1 "PIN HDR, 1x2" V 8500 4200 40  0001 C CNN
F 2 "" H 8450 4200 60  0000 C CNN
F 3 "" H 8450 4200 60  0000 C CNN
	1    8450 4200
	1    0    0    -1  
$EndComp
Wire Wire Line
	4900 3000 4900 2550
Wire Wire Line
	4900 2550 5200 2550
Wire Wire Line
	5600 2550 5900 2550
Wire Wire Line
	5900 2550 5900 3000
Wire Wire Line
	5800 3000 8100 3000
Wire Wire Line
	6000 3000 6000 3150
Connection ~ 5900 3000
Wire Wire Line
	5400 3300 5400 3900
Wire Wire Line
	5400 3750 6550 3750
Wire Wire Line
	6000 3750 6000 3650
Connection ~ 5400 3750
Wire Wire Line
	6550 3000 6550 3150
Connection ~ 6000 3000
Wire Wire Line
	6550 3550 6550 3950
Connection ~ 6550 3750
Connection ~ 6000 3750
Wire Wire Line
	5400 4400 5400 4650
Connection ~ 6550 3000
Connection ~ 4900 3000
Connection ~ 7100 3000
Connection ~ 7500 3000
Wire Wire Line
	7100 3150 7100 3000
Wire Wire Line
	7500 4200 7500 4350
Wire Wire Line
	7500 3000 7500 3700
Wire Wire Line
	4750 3550 4750 3700
Wire Wire Line
	6550 4350 6550 4500
Wire Wire Line
	7500 4900 7500 4750
Wire Wire Line
	7100 3700 7100 3550
Wire Wire Line
	4000 3000 4150 3000
Wire Wire Line
	4550 3000 5000 3000
Wire Wire Line
	4750 3150 4750 3000
Connection ~ 4750 3000
Wire Wire Line
	3250 3200 3400 3200
Wire Wire Line
	3400 3200 3400 3350
Wire Wire Line
	3250 3000 3500 3000
Wire Wire Line
	5400 5150 5400 5400
Wire Wire Line
	5650 5000 5650 5250
Wire Wire Line
	5650 5250 5400 5250
Connection ~ 5400 5250
Wire Wire Line
	5400 4500 5650 4500
Wire Wire Line
	5650 4500 5650 4800
Connection ~ 5400 4500
Wire Wire Line
	8100 3350 7850 3350
Wire Wire Line
	7850 3000 7850 4100
Connection ~ 7850 3000
Wire Wire Line
	7850 3750 8100 3750
Connection ~ 7850 3350
Wire Wire Line
	7850 4100 8100 4100
Connection ~ 7850 3750
Wire Wire Line
	8000 4300 8100 4300
Wire Wire Line
	8000 3950 8100 3950
Connection ~ 8000 4300
Wire Wire Line
	8000 3550 8100 3550
Connection ~ 8000 3950
Wire Wire Line
	8100 3200 8000 3200
Connection ~ 8000 3550
Text Label 4950 3000 3    60   ~ 0
REG_IN
Text Label 5400 3350 0    60   ~ 0
REG_ADJ
Connection ~ 8000 3200
Wire Wire Line
	8000 3200 8000 4500
$EndSCHEMATC
