G04 (created by PCBNEW (25-Oct-2014 BZR 4029)-stable) date Tue 14 Apr 2015 12:13:25 PM PDT*
%MOIN*%
G04 Gerber Fmt 3.4, Leading zero omitted, Abs format*
%FSLAX34Y34*%
G01*
G70*
G90*
G04 APERTURE LIST*
%ADD10C,0.00590551*%
%ADD11C,0.00787402*%
G04 APERTURE END LIST*
G54D10*
G54D11*
X57450Y-36100D02*
X57450Y-28600D01*
X36200Y-36100D02*
X57450Y-36100D01*
X36200Y-28600D02*
X36200Y-36100D01*
X36200Y-28600D02*
X57450Y-28600D01*
M02*
